simulation/qsim/MI-CircuitosDigitais.msim.vcd
$comment
	File created using the following command:
		vcd file MI-CircuitosDigitais.msim.vcd -direction
$end
$date
	Sun Sep 03 17:53:22 2023
$end
$version
	ModelSim Version 10.5b
$end
$timescale
	1ps
$end

$scope module circuito_autenticacao_vlg_vec_tst $end
$var reg 1 ! A $end
$var reg 1 " B $end
$var reg 1 # C $end
$var wire 1 $ P [6] $end
$var wire 1 % P [5] $end
$var wire 1 & P [4] $end
$var wire 1 ' P [3] $end
$var wire 1 ( P [2] $end
$var wire 1 ) P [1] $end
$var wire 1 * P [0] $end

$scope module i1 $end
$var wire 1 + gnd $end
$var wire 1 , vcc $end
$var wire 1 - unknown $end
$var tri1 1 . devclrn $end
$var tri1 1 / devpor $end
$var tri1 1 0 devoe $end
$var wire 1 1 B~combout $end
$var wire 1 2 A~combout $end
$var wire 1 3 C~combout $end
$var wire 1 4 WideAnd2~0_combout $end
$var wire 1 5 WideOr1~0_combout $end
$var wire 1 6 comb~0_combout $end
$var wire 1 7 comb~1_combout $end
$upscope $end
$upscope $end
$enddefinitions $end
#0
$dumpvars
0!
0"
0#
0*
0)
0(
0'
0&
0%
0$
0+
1,
x-
1.
1/
10
01
02
03
04
05
06
07
$end
#10000
1#
13
16
15
1&
1'
1$
1)
#20000
1"
0#
11
03
06
05
0&
0'
0$
0)
#30000
1#
13
17
16
15
1%
1&
1'
1$
1)
#40000
1!
0"
0#
12
01
03
07
06
05
0%
0&
0'
0$
0)
#50000
1#
13
17
16
15
14
1%
1&
1'
1$
1)
1(
1*
#60000
1"
0#
11
03
07
06
04
0%
0&
0'
0(
0*
#70000
1#
13
05
0$
0)
#80000
0!
0"
0#
02
01
03
