simulation/qsim/MI-CircuitosDigitais.msim.vcd
$comment
	File created using the following command:
		vcd file MI-CircuitosDigitais.msim.vcd -direction
$end
$date
	Sat Sep 02 22:56:00 2023
$end
$version
	ModelSim Version 10.5b
$end
$timescale
	1ps
$end

$scope module decodificador_7seg_vlg_vec_tst $end
$var reg 1 ! A $end
$var reg 1 " B $end
$var reg 1 # C $end
$var wire 1 $ SEG [7] $end
$var wire 1 % SEG [6] $end
$var wire 1 & SEG [5] $end
$var wire 1 ' SEG [4] $end
$var wire 1 ( SEG [3] $end
$var wire 1 ) SEG [2] $end
$var wire 1 * SEG [1] $end
$var wire 1 + SEG [0] $end

$scope module i1 $end
$var wire 1 , gnd $end
$var wire 1 - vcc $end
$var wire 1 . unknown $end
$var tri1 1 / devclrn $end
$var tri1 1 0 devpor $end
$var tri1 1 1 devoe $end
$var wire 1 2 A~combout $end
$var wire 1 3 C~combout $end
$var wire 1 4 B~combout $end
$var wire 1 5 WideAnd0~combout $end
$var wire 1 6 comb~0_combout $end
$var wire 1 7 WideOr0~0_combout $end
$var wire 1 8 WideOr1~0_combout $end
$var wire 1 9 comb~1_combout $end
$var wire 1 : WideAnd0~0_combout $end
$upscope $end
$upscope $end
$enddefinitions $end
#0
$dumpvars
0!
0"
0#
0+
0*
1)
1(
0'
0&
0%
1$
0,
1-
x.
1/
10
11
02
03
04
05
06
17
18
09
0:
$end
#40000
1#
13
1:
19
07
15
1&
1'
0)
1%
1+
#80000
1"
0#
14
03
09
17
05
0:
0'
1)
0%
0+
0&
#120000
1#
13
1:
19
08
07
1&
1'
0(
0)
#160000
1!
0"
0#
12
04
03
0:
09
18
17
0&
0'
1(
1)
#200000
1#
13
19
08
07
16
1'
0(
0)
1*
#240000
1"
0#
14
03
09
0'
#280000
1#
13
18
17
06
1(
1)
0*
#320000
0!
0"
0#
02
04
03
